<?xml version="1.0" encoding="utf-8"?>
<!-- Generator: Adobe Illustrator 16.0.0, SVG Export Plug-In . SVG Version: 6.00 Build 0)  -->
<!DOCTYPE svg PUBLIC "-//W3C//DTD SVG 1.0//EN" "http://www.w3.org/TR/2001/REC-SVG-20010904/DTD/svg10.dtd">
<svg version="1.0" id="Layer_1" xmlns="http://www.w3.org/2000/svg" xmlns:xlink="http://www.w3.org/1999/xlink" x="0px" y="0px"
	 width="100px" height="100px" viewBox="0 0 100 100" enable-background="new 0 0 100 100" xml:space="preserve">
<path d="M39.167,50.833C39.167,53.138,37.298,55,35,55s-4.167-1.862-4.167-4.167s1.868-4.167,4.167-4.167
	S39.167,48.528,39.167,50.833z"/>
<circle cx="30.833" cy="37.5" r="2.5"/>
<path d="M69.167,50.833C69.167,53.138,67.298,55,65,55s-4.167-1.862-4.167-4.167s1.869-4.167,4.167-4.167
	S69.167,48.528,69.167,50.833z"/>
<path d="M83.333,66.667V30c0-3.666-3.001-6.667-6.666-6.667H23.333c-3.669,0-6.667,3.001-6.667,6.667v36.667H10V70
	c0,3.665,2.998,6.667,6.667,6.667h66.667C86.999,76.667,90,73.665,90,70v-3.333H83.333z M76.667,30v36.667h-3.334v-5
	c0-1.833-1.497-3.334-3.333-3.334H60c-1.829,0-3.333,1.501-3.333,3.334v5h-3.334V30H76.667z M23.333,30h23.333v36.667h-3.333v-5
	c0-1.833-1.501-3.334-3.333-3.334H30c-1.833,0-3.333,1.501-3.333,3.334v5h-3.333V30z"/>
<circle cx="60.833" cy="37.5" r="2.5"/>
</svg>
